<svg xmlns="http://www.w3.org/2000/svg" xml:space="preserve" viewBox="0 0 65 45">
 <defs>
  <style type="text/css"></style>

 </defs>
 <g id="Слой_x0020_1">
  <metadata id="CorelCorpID_0Corel-Layer"/>
  <path class="fil0 str0" d="M22.2198 22.296l-2.9778 3.0481 -6.2853 1.0528 0 3.7118 1.3295 -0.2227 0 4.4312 -7.2365 1.2122 0 -4.4312 1.3133 -0.2201 0 -15.1337 -1.3133 0.2199 0 -4.4311 5.907 -0.9895 0 1.2564 1.4863 -1.5054 4.799 -0.8038 2.9778 2.04 0 10.7651zm-4.5938 -1.1072l0 -6.9961 -4.6693 0.7822 0 6.9961 4.6693 -0.7822zm21.1301 9.27l-2.9739 2.5517 -8.0547 0.1336 -3.0068 -2.4525 0 -3.8682 4.6638 -0.0773 0 1.9393 4.7077 -0.078 0 -5.3435 -6.3647 0.1055 -3.0068 -2.4682 0 -9.1803 3.0068 -2.573 4.8723 -0.0808 1.4924 1.2316 0 -1.2563 4.6639 -0.0774 0 6.3705 -4.6639 0.0773 0 -1.9392 -4.7077 0.078 0 5.3435 6.3977 -0.1061 2.9739 2.4738 0 9.196zm17.8807 2.4165l-3.0102 2.0138 -8.3767 -1.4032 -2.9454 -2.9957 0 -17.0626 -1.3132 -0.22 0 -4.4312 7.2202 1.2094 0 4.4312 -1.3133 -0.22 0 15.1339 5.1449 0.8617 0 -15.1337 -1.3294 -0.2228 0 -4.4312 7.2364 1.2122 0 4.4312 -1.3133 -0.22 0 17.047z"/>
  <path class="fil0" d="M11.4181 39.7345l-0.4133 0.3668 -0.8723 0 0 0.5341 0.1845 0 0 0.6375 -1.0043 0 0 -0.6375 0.1823 0 0 -2.1774 -0.1823 0 0 -0.6375 0.8198 0 0 0.1807 0.2063 -0.1807 0.666 0 0.4133 0.3653 0 1.5487zm-0.6375 -0.2699l0 -1.0066 -0.6481 0 0 1.0066 0.6481 0zm0.945 1.8083l0 -0.6375 0.1822 0 0 -2.1774 -0.1822 0 0 -0.6375 2.0154 0 0 0.9165 -0.6376 0 0 -0.279 -0.558 0 0 0.7687 0.8724 0 0 0.6399 -0.8724 0 0 0.7688 0.558 0 0 -0.279 0.6376 0 0 0.9165 -2.0154 0zm4.5603 0l-0.684 0 -0.5423 -1.4063 -0.189 0 0 0.7688 0.1822 0 0 0.6375 -1.0043 0 0 -0.6375 0.1823 0 0 -2.1774 -0.1823 0 0 -0.6375 0.8221 0 0 0.1807 0.2062 -0.1807 0.6856 0 0.4065 0.363 0 1.2676 -0.4351 0.4065 0.3031 0.7778 0.249 0 0 0.6375zm-1.4153 -2.0462l0.6616 0 0 -0.7687 -0.6616 0 0 0.7687zm3.4855 2.0462l0 -0.6375 0.1754 0 0 -1.3074 -0.5557 1.1866 -0.5536 -1.1866 0 1.3074 0.1755 0 0 0.6375 -1.0043 0 0 -0.6375 0.1913 0 0 -2.1774 -0.1845 0 0 -0.6375 0.822 0 0.5536 1.1865 0.5557 -1.1865 0.8221 0 0 0.6375 -0.1822 0 0 2.1774 0.189 0 0 0.6375 -1.0043 0zm4.3293 -0.3599l-0.4066 0.3599 -1.1011 0 -0.411 -0.3599 0 -0.5566 0.6376 0 0 0.279 0.6435 0 0 -0.7688 -0.8701 0 -0.411 -0.3623 0 -1.3208 0.411 -0.363 0.6661 0 0.204 0.1807 0 -0.1807 0.6376 0 0 0.9165 -0.6376 0 0 -0.279 -0.6435 0 0 0.7687 0.8745 0 0.4066 0.3631 0 1.3232zm1.9403 -2.455l-0.1777 0 0 2.1774 0.1822 0 0 0.6375 -1.0043 0 0 -0.6375 0.1822 0 0 -2.1774 -0.1777 0 0 0.279 -0.6375 0 0 -0.9165 2.2696 0 0 0.9165 -0.6368 0 0 -0.279zm1.7897 2.8149l0 -0.6375 0.18 0 -0.0548 -0.279 -0.6114 0 -0.0547 0.279 0.1845 0 0 0.6375 -1.0042 0 0 -0.6375 0.1695 0 0.5625 -2.8149 0.8963 0 0.5625 2.8149 0.1733 0 0 0.6375 -1.0035 0zm-0.3564 -1.5533l0.3541 0 -0.1785 -0.8858 -0.1756 0.8858zm2.785 -1.2616l-0.1778 0 0 2.1774 0.1823 0 0 0.6375 -1.0043 0 0 -0.6375 0.1822 0 0 -2.1774 -0.1777 0 0 0.279 -0.6376 0 0 -0.9165 2.2697 0 0 0.9165 -0.6368 0 0 -0.279zm0.945 2.8149l0 -0.6375 0.1823 0 0 -2.1774 -0.1823 0 0 -0.6375 2.0154 0 0 0.9165 -0.6375 0 0 -0.279 -0.5581 0 0 0.7687 0.8723 0 0 0.6399 -0.8723 0 0 0.7688 0.5581 0 0 -0.279 0.6375 0 0 0.9165 -2.0154 0zm5.5931 -0.3622l-0.4177 0.3622 -1.1626 0 -0.4088 -0.3599 0 -2.455 -0.1822 0 0 -0.6375 1.002 0 0 0.6375 -0.1823 0 0 2.1774 0.7141 0 0 -2.1774 -0.1845 0 0 -0.6375 1.0043 0 0 0.6375 -0.1823 0 0 2.4527zm2.0065 0.3622l-0.6969 -1.8083 0 1.1708 0.1846 0 0 0.6375 -1.0044 0 0 -0.6375 0.1845 0 0 -2.1774 -0.1822 0 0 -0.6375 0.8655 0 0.6991 1.8114 0 -1.1739 -0.1845 0 0 -0.6375 1.002 0 0 0.6375 -0.1844 0 0 2.8149 -0.6833 0zm1.1753 0l0 -0.6375 0.1822 0 0 -2.1774 -0.1822 0 0 -0.6375 1.0043 0 0 0.6375 -0.1823 0 0 2.1774 0.1823 0 0 0.6375 -1.0043 0zm2.4767 -1.4633c0.0569,-0.2595 0.1124,-0.5078 0.1657,-0.7448 0.0532,-0.2378 0.0983,-0.4396 0.135,-0.6068l-0.138 0 0 -0.6375 1.0021 0 0 0.6375 -0.2094 0 -0.6284 2.8149 -0.6526 0 -0.6308 -2.8149 -0.2085 0 0 -0.6375 1.0021 0 0 0.6375 -0.1388 0c0.0398,0.177 0.0847,0.3773 0.1343,0.6 0.0502,0.2228 0.1057,0.4733 0.1673,0.7516zm1.4722 1.4633l0 -0.6375 0.1823 0 0 -2.1774 -0.1823 0 0 -0.6375 2.0155 0 0 0.9165 -0.6376 0 0 -0.279 -0.558 0 0 0.7687 0.8722 0 0 0.6399 -0.8722 0 0 0.7688 0.558 0 0 -0.279 0.6376 0 0 0.9165 -2.0155 0zm4.5604 0l-0.6841 0 -0.5423 -1.4063 -0.189 0 0 0.7688 0.1823 0 0 0.6375 -1.0043 0 0 -0.6375 0.1822 0 0 -2.1774 -0.1822 0 0 -0.6375 0.822 0 0 0.1807 0.2063 -0.1807 0.6855 0 0.4066 0.363 0 1.2676 -0.4351 0.4065 0.3031 0.7778 0.249 0 0 0.6375zm-1.4154 -2.0462l0.6616 0 0 -0.7687 -0.6616 0 0 0.7687zm3.6415 1.6863l-0.4065 0.3599 -1.1011 0 -0.411 -0.3599 0 -0.5566 0.6376 0 0 0.279 0.6435 0 0 -0.7688 -0.8701 0 -0.411 -0.3623 0 -1.3208 0.411 -0.363 0.666 0 0.2041 0.1807 0 -0.1807 0.6375 0 0 0.9165 -0.6375 0 0 -0.279 -0.6435 0 0 0.7687 0.8745 0 0.4065 0.3631 0 1.3232zm0.3075 0.3599l0 -0.6375 0.1823 0 0 -2.1774 -0.1823 0 0 -0.6375 1.0043 0 0 0.6375 -0.1823 0 0 2.1774 0.1823 0 0 0.6375 -1.0043 0zm2.9447 -2.8149l-0.1778 0 0 2.1774 0.1823 0 0 0.6375 -1.0043 0 0 -0.6375 0.1823 0 0 -2.1774 -0.1778 0 0 0.279 -0.6376 0 0 -0.9165 2.2697 0 0 0.9165 -0.6368 0 0 -0.279zm2.3731 1.5428l0 0.6346 0.1785 0 0 0.6375 -1.0042 0 0 -0.6375 0.18 0 0 -0.6391 -0.5408 -1.5383 -0.2415 0 0 -0.6375 1.0043 0 0 0.6375 -0.1162 0 0.2197 0.6481 0.2153 -0.6481 -0.1103 0 0 -0.6375 0.978 0 0 0.6375 -0.2062 0 -0.5566 1.5428z"/>
 </g>
</svg>
